691
# FeELL(abcABC):   20.027    20.027    20.027    90.00000    90.00000    90.00000  Step:           0  Bead:       0 positions{angstrom}  cell{angstrom}
Fe   0.000000    0.000000    0.000000
Fe   0.000000    0.000000    2.861000
Fe   0.000000    0.000000    5.722000
Fe   0.000000    0.000000    8.583000
Fe   0.000000    0.000000   11.444000
Fe   0.000000    0.000000   14.305000
Fe   0.000000    0.000000   17.166000
Fe   0.000000    2.861000    0.000000
Fe   0.000000    2.861000    2.861000
Fe   0.000000    2.861000    5.722000
Fe   0.000000    2.861000    8.583000
Fe   0.000000    2.861000   11.444000
Fe   0.000000    2.861000   14.305000
Fe   0.000000    2.861000   17.166000
Fe   0.000000    5.722000    0.000000
Fe   0.000000    5.722000    2.861000
Fe   0.000000    5.722000    5.722000
Fe   0.000000    5.722000    8.583000
Fe   0.000000    5.722000   11.444000
Fe   0.000000    5.722000   14.305000
Fe   0.000000    5.722000   17.166000
Fe   0.000000    8.583000    0.000000
Fe   0.000000    8.583000    2.861000
Fe   0.000000    8.583000    5.722000
Fe   0.000000    8.583000    8.583000
Fe   0.000000    8.583000   11.444000
Fe   0.000000    8.583000   14.305000
Fe   0.000000    8.583000   17.166000
Fe   0.000000   11.444000    0.000000
Fe   0.000000   11.444000    2.861000
Fe   0.000000   11.444000    5.722000
Fe   0.000000   11.444000    8.583000
Fe   0.000000   11.444000   11.444000
Fe   0.000000   11.444000   14.305000
Fe   0.000000   11.444000   17.166000
Fe   0.000000   14.305000    0.000000
Fe   0.000000   14.305000    2.861000
Fe   0.000000   14.305000    5.722000
Fe   0.000000   14.305000    8.583000
Fe   0.000000   14.305000   11.444000
Fe   0.000000   14.305000   14.305000
Fe   0.000000   14.305000   17.166000
Fe   0.000000   17.166000    0.000000
Fe   0.000000   17.166000    2.861000
Fe   0.000000   17.166000    5.722000
Fe   0.000000   17.166000    8.583000
Fe   0.000000   17.166000   11.444000
Fe   0.000000   17.166000   14.305000
Fe   0.000000   17.166000   17.166000
Fe   2.861000    0.000000    0.000000
Fe   2.861000    0.000000    2.861000
Fe   2.861000    0.000000    5.722000
Fe   2.861000    0.000000    8.583000
Fe   2.861000    0.000000   11.444000
Fe   2.861000    0.000000   14.305000
Fe   2.861000    0.000000   17.166000
Fe   2.861000    2.861000    0.000000
Fe   2.861000    2.861000    2.861000
Fe   2.861000    2.861000    5.722000
Fe   2.861000    2.861000    8.583000
Fe   2.861000    2.861000   11.444000
Fe   2.861000    2.861000   14.305000
Fe   2.861000    2.861000   17.166000
Fe   2.861000    5.722000    0.000000
Fe   2.861000    5.722000    2.861000
Fe   2.861000    5.722000    5.722000
Fe   2.861000    5.722000    8.583000
Fe   2.861000    5.722000   11.444000
Fe   2.861000    5.722000   14.305000
Fe   2.861000    5.722000   17.166000
Fe   2.861000    8.583000    0.000000
Fe   2.861000    8.583000    2.861000
Fe   2.861000    8.583000    5.722000
Fe   2.861000    8.583000    8.583000
Fe   2.861000    8.583000   11.444000
Fe   2.861000    8.583000   14.305000
Fe   2.861000    8.583000   17.166000
Fe   2.861000   11.444000    0.000000
Fe   2.861000   11.444000    2.861000
Fe   2.861000   11.444000    5.722000
Fe   2.861000   11.444000    8.583000
Fe   2.861000   11.444000   11.444000
Fe   2.861000   11.444000   14.305000
Fe   2.861000   11.444000   17.166000
Fe   2.861000   14.305000    0.000000
Fe   2.861000   14.305000    2.861000
Fe   2.861000   14.305000    5.722000
Fe   2.861000   14.305000    8.583000
Fe   2.861000   14.305000   11.444000
Fe   2.861000   14.305000   14.305000
Fe   2.861000   14.305000   17.166000
Fe   2.861000   17.166000    0.000000
Fe   2.861000   17.166000    2.861000
Fe   2.861000   17.166000    5.722000
Fe   2.861000   17.166000    8.583000
Fe   2.861000   17.166000   11.444000
Fe   2.861000   17.166000   14.305000
Fe   2.861000   17.166000   17.166000
Fe   5.722000    0.000000    0.000000
Fe   5.722000    0.000000    2.861000
Fe   5.722000    0.000000    5.722000
Fe   5.722000    0.000000    8.583000
Fe   5.722000    0.000000   11.444000
Fe   5.722000    0.000000   14.305000
Fe   5.722000    0.000000   17.166000
Fe   5.722000    2.861000    0.000000
Fe   5.722000    2.861000    2.861000
Fe   5.722000    2.861000    5.722000
Fe   5.722000    2.861000    8.583000
Fe   5.722000    2.861000   11.444000
Fe   5.722000    2.861000   14.305000
Fe   5.722000    2.861000   17.166000
Fe   5.722000    5.722000    0.000000
Fe   5.722000    5.722000    2.861000
Fe   5.722000    5.722000    5.722000
Fe   5.722000    5.722000    8.583000
Fe   5.722000    5.722000   11.444000
Fe   5.722000    5.722000   14.305000
Fe   5.722000    5.722000   17.166000
Fe   5.722000    8.583000    0.000000
Fe   5.722000    8.583000    2.861000
Fe   5.722000    8.583000    5.722000
Fe   5.722000    8.583000    8.583000
Fe   5.722000    8.583000   11.444000
Fe   5.722000    8.583000   14.305000
Fe   5.722000    8.583000   17.166000
Fe   5.722000   11.444000    0.000000
Fe   5.722000   11.444000    2.861000
Fe   5.722000   11.444000    5.722000
Fe   5.722000   11.444000    8.583000
Fe   5.722000   11.444000   11.444000
Fe   5.722000   11.444000   14.305000
Fe   5.722000   11.444000   17.166000
Fe   5.722000   14.305000    0.000000
Fe   5.722000   14.305000    2.861000
Fe   5.722000   14.305000    5.722000
Fe   5.722000   14.305000    8.583000
Fe   5.722000   14.305000   11.444000
Fe   5.722000   14.305000   14.305000
Fe   5.722000   14.305000   17.166000
Fe   5.722000   17.166000    0.000000
Fe   5.722000   17.166000    2.861000
Fe   5.722000   17.166000    5.722000
Fe   5.722000   17.166000    8.583000
Fe   5.722000   17.166000   11.444000
Fe   5.722000   17.166000   14.305000
Fe   5.722000   17.166000   17.166000
Fe   8.583000    0.000000    0.000000
Fe   8.583000    0.000000    2.861000
Fe   8.583000    0.000000    5.722000
Fe   8.583000    0.000000    8.583000
Fe   8.583000    0.000000   11.444000
Fe   8.583000    0.000000   14.305000
Fe   8.583000    0.000000   17.166000
Fe   8.583000    2.861000    0.000000
Fe   8.583000    2.861000    2.861000
Fe   8.583000    2.861000    5.722000
Fe   8.583000    2.861000    8.583000
Fe   8.583000    2.861000   11.444000
Fe   8.583000    2.861000   14.305000
Fe   8.583000    2.861000   17.166000
Fe   8.583000    5.722000    0.000000
Fe   8.583000    5.722000    2.861000
Fe   8.583000    5.722000    5.722000
Fe   8.583000    5.722000    8.583000
Fe   8.583000    5.722000   11.444000
Fe   8.583000    5.722000   14.305000
Fe   8.583000    5.722000   17.166000
Fe   8.583000    8.583000    0.000000
Fe   8.583000    8.583000    2.861000
Fe   8.583000    8.583000    5.722000
Fe   8.583000    8.583000    8.583000
Fe   8.583000    8.583000   11.444000
Fe   8.583000    8.583000   14.305000
Fe   8.583000    8.583000   17.166000
Fe   8.583000   11.444000    0.000000
Fe   8.583000   11.444000    2.861000
Fe   8.583000   11.444000    5.722000
Fe   8.583000   11.444000    8.583000
Fe   8.583000   11.444000   11.444000
Fe   8.583000   11.444000   14.305000
Fe   8.583000   11.444000   17.166000
Fe   8.583000   14.305000    0.000000
Fe   8.583000   14.305000    2.861000
Fe   8.583000   14.305000    5.722000
Fe   8.583000   14.305000    8.583000
Fe   8.583000   14.305000   11.444000
Fe   8.583000   14.305000   14.305000
Fe   8.583000   14.305000   17.166000
Fe   8.583000   17.166000    0.000000
Fe   8.583000   17.166000    2.861000
Fe   8.583000   17.166000    5.722000
Fe   8.583000   17.166000    8.583000
Fe   8.583000   17.166000   11.444000
Fe   8.583000   17.166000   14.305000
Fe   8.583000   17.166000   17.166000
Fe  11.444000    0.000000    0.000000
Fe  11.444000    0.000000    2.861000
Fe  11.444000    0.000000    5.722000
Fe  11.444000    0.000000    8.583000
Fe  11.444000    0.000000   11.444000
Fe  11.444000    0.000000   14.305000
Fe  11.444000    0.000000   17.166000
Fe  11.444000    2.861000    0.000000
Fe  11.444000    2.861000    2.861000
Fe  11.444000    2.861000    5.722000
Fe  11.444000    2.861000    8.583000
Fe  11.444000    2.861000   11.444000
Fe  11.444000    2.861000   14.305000
Fe  11.444000    2.861000   17.166000
Fe  11.444000    5.722000    0.000000
Fe  11.444000    5.722000    2.861000
Fe  11.444000    5.722000    5.722000
Fe  11.444000    5.722000    8.583000
Fe  11.444000    5.722000   11.444000
Fe  11.444000    5.722000   14.305000
Fe  11.444000    5.722000   17.166000
Fe  11.444000    8.583000    0.000000
Fe  11.444000    8.583000    2.861000
Fe  11.444000    8.583000    5.722000
Fe  11.444000    8.583000    8.583000
Fe  11.444000    8.583000   11.444000
Fe  11.444000    8.583000   14.305000
Fe  11.444000    8.583000   17.166000
Fe  11.444000   11.444000    0.000000
Fe  11.444000   11.444000    2.861000
Fe  11.444000   11.444000    5.722000
Fe  11.444000   11.444000    8.583000
Fe  11.444000   11.444000   11.444000
Fe  11.444000   11.444000   14.305000
Fe  11.444000   11.444000   17.166000
Fe  11.444000   14.305000    0.000000
Fe  11.444000   14.305000    2.861000
Fe  11.444000   14.305000    5.722000
Fe  11.444000   14.305000    8.583000
Fe  11.444000   14.305000   11.444000
Fe  11.444000   14.305000   14.305000
Fe  11.444000   14.305000   17.166000
Fe  11.444000   17.166000    0.000000
Fe  11.444000   17.166000    2.861000
Fe  11.444000   17.166000    5.722000
Fe  11.444000   17.166000    8.583000
Fe  11.444000   17.166000   11.444000
Fe  11.444000   17.166000   14.305000
Fe  11.444000   17.166000   17.166000
Fe  14.305000    0.000000    0.000000
Fe  14.305000    0.000000    2.861000
Fe  14.305000    0.000000    5.722000
Fe  14.305000    0.000000    8.583000
Fe  14.305000    0.000000   11.444000
Fe  14.305000    0.000000   14.305000
Fe  14.305000    0.000000   17.166000
Fe  14.305000    2.861000    0.000000
Fe  14.305000    2.861000    2.861000
Fe  14.305000    2.861000    5.722000
Fe  14.305000    2.861000    8.583000
Fe  14.305000    2.861000   11.444000
Fe  14.305000    2.861000   14.305000
Fe  14.305000    2.861000   17.166000
Fe  14.305000    5.722000    0.000000
Fe  14.305000    5.722000    2.861000
Fe  14.305000    5.722000    5.722000
Fe  14.305000    5.722000    8.583000
Fe  14.305000    5.722000   11.444000
Fe  14.305000    5.722000   14.305000
Fe  14.305000    5.722000   17.166000
Fe  14.305000    8.583000    0.000000
Fe  14.305000    8.583000    2.861000
Fe  14.305000    8.583000    5.722000
Fe  14.305000    8.583000    8.583000
Fe  14.305000    8.583000   11.444000
Fe  14.305000    8.583000   14.305000
Fe  14.305000    8.583000   17.166000
Fe  14.305000   11.444000    0.000000
Fe  14.305000   11.444000    2.861000
Fe  14.305000   11.444000    5.722000
Fe  14.305000   11.444000    8.583000
Fe  14.305000   11.444000   11.444000
Fe  14.305000   11.444000   14.305000
Fe  14.305000   11.444000   17.166000
Fe  14.305000   14.305000    0.000000
Fe  14.305000   14.305000    2.861000
Fe  14.305000   14.305000    5.722000
Fe  14.305000   14.305000    8.583000
Fe  14.305000   14.305000   11.444000
Fe  14.305000   14.305000   14.305000
Fe  14.305000   14.305000   17.166000
Fe  14.305000   17.166000    0.000000
Fe  14.305000   17.166000    2.861000
Fe  14.305000   17.166000    5.722000
Fe  14.305000   17.166000    8.583000
Fe  14.305000   17.166000   11.444000
Fe  14.305000   17.166000   14.305000
Fe  14.305000   17.166000   17.166000
Fe  17.166000    0.000000    0.000000
Fe  17.166000    0.000000    2.861000
Fe  17.166000    0.000000    5.722000
Fe  17.166000    0.000000    8.583000
Fe  17.166000    0.000000   11.444000
Fe  17.166000    0.000000   14.305000
Fe  17.166000    0.000000   17.166000
Fe  17.166000    2.861000    0.000000
Fe  17.166000    2.861000    2.861000
Fe  17.166000    2.861000    5.722000
Fe  17.166000    2.861000    8.583000
Fe  17.166000    2.861000   11.444000
Fe  17.166000    2.861000   14.305000
Fe  17.166000    2.861000   17.166000
Fe  17.166000    5.722000    0.000000
Fe  17.166000    5.722000    2.861000
Fe  17.166000    5.722000    5.722000
Fe  17.166000    5.722000    8.583000
Fe  17.166000    5.722000   11.444000
Fe  17.166000    5.722000   14.305000
Fe  17.166000    5.722000   17.166000
Fe  17.166000    8.583000    0.000000
Fe  17.166000    8.583000    2.861000
Fe  17.166000    8.583000    5.722000
Fe  17.166000    8.583000    8.583000
Fe  17.166000    8.583000   11.444000
Fe  17.166000    8.583000   14.305000
Fe  17.166000    8.583000   17.166000
Fe  17.166000   11.444000    0.000000
Fe  17.166000   11.444000    2.861000
Fe  17.166000   11.444000    5.722000
Fe  17.166000   11.444000    8.583000
Fe  17.166000   11.444000   11.444000
Fe  17.166000   11.444000   14.305000
Fe  17.166000   11.444000   17.166000
Fe  17.166000   14.305000    0.000000
Fe  17.166000   14.305000    2.861000
Fe  17.166000   14.305000    5.722000
Fe  17.166000   14.305000    8.583000
Fe  17.166000   14.305000   11.444000
Fe  17.166000   14.305000   14.305000
Fe  17.166000   14.305000   17.166000
Fe  17.166000   17.166000    0.000000
Fe  17.166000   17.166000    2.861000
Fe  17.166000   17.166000    5.722000
Fe  17.166000   17.166000    8.583000
Fe  17.166000   17.166000   11.444000
Fe  17.166000   17.166000   14.305000
Fe  17.166000   17.166000   17.166000
Fe   1.430500    1.430500    1.430500
Fe   1.430500    1.430500    4.291500
Fe   1.430500    1.430500    7.152500
Fe   1.430500    1.430500   10.013500
Fe   1.430500    1.430500   12.874500
Fe   1.430500    1.430500   15.735500
Fe   1.430500    1.430500   18.596500
Fe   1.430500    4.291500    1.430500
Fe   1.430500    4.291500    4.291500
Fe   1.430500    4.291500    7.152500
Fe   1.430500    4.291500   10.013500
Fe   1.430500    4.291500   12.874500
Fe   1.430500    4.291500   15.735500
Fe   1.430500    4.291500   18.596500
Fe   1.430500    7.152500    1.430500
Fe   1.430500    7.152500    4.291500
Fe   1.430500    7.152500    7.152500
Fe   1.430500    7.152500   10.013500
Fe   1.430500    7.152500   12.874500
Fe   1.430500    7.152500   15.735500
Fe   1.430500    7.152500   18.596500
Fe   1.430500   10.013500    1.430500
Fe   1.430500   10.013500    4.291500
Fe   1.430500   10.013500    7.152500
Fe   1.430500   10.013500   10.013500
Fe   1.430500   10.013500   12.874500
Fe   1.430500   10.013500   15.735500
Fe   1.430500   10.013500   18.596500
Fe   1.430500   12.874500    1.430500
Fe   1.430500   12.874500    4.291500
Fe   1.430500   12.874500    7.152500
Fe   1.430500   12.874500   10.013500
Fe   1.430500   12.874500   12.874500
Fe   1.430500   12.874500   15.735500
Fe   1.430500   12.874500   18.596500
Fe   1.430500   15.735500    1.430500
Fe   1.430500   15.735500    4.291500
Fe   1.430500   15.735500    7.152500
Fe   1.430500   15.735500   10.013500
Fe   1.430500   15.735500   12.874500
Fe   1.430500   15.735500   15.735500
Fe   1.430500   15.735500   18.596500
Fe   1.430500   18.596500    1.430500
Fe   1.430500   18.596500    4.291500
Fe   1.430500   18.596500    7.152500
Fe   1.430500   18.596500   10.013500
Fe   1.430500   18.596500   12.874500
Fe   1.430500   18.596500   15.735500
Fe   1.430500   18.596500   18.596500
Fe   4.291500    1.430500    1.430500
Fe   4.291500    1.430500    4.291500
Fe   4.291500    1.430500    7.152500
Fe   4.291500    1.430500   10.013500
Fe   4.291500    1.430500   12.874500
Fe   4.291500    1.430500   15.735500
Fe   4.291500    1.430500   18.596500
Fe   4.291500    4.291500    1.430500
Fe   4.291500    4.291500    4.291500
Fe   4.291500    4.291500    7.152500
Fe   4.291500    4.291500   10.013500
Fe   4.291500    4.291500   12.874500
Fe   4.291500    4.291500   15.735500
Fe   4.291500    4.291500   18.596500
Fe   4.291500    7.152500    1.430500
Fe   4.291500    7.152500    4.291500
Fe   4.291500    7.152500    7.152500
Fe   4.291500    7.152500   10.013500
Fe   4.291500    7.152500   12.874500
Fe   4.291500    7.152500   15.735500
Fe   4.291500    7.152500   18.596500
Fe   4.291500   10.013500    1.430500
Fe   4.291500   10.013500    4.291500
Fe   4.291500   10.013500    7.152500
Fe   4.291500   10.013500   10.013500
Fe   4.291500   10.013500   12.874500
Fe   4.291500   10.013500   15.735500
Fe   4.291500   10.013500   18.596500
Fe   4.291500   12.874500    1.430500
Fe   4.291500   12.874500    4.291500
Fe   4.291500   12.874500    7.152500
Fe   4.291500   12.874500   10.013500
Fe   4.291500   12.874500   12.874500
Fe   4.291500   12.874500   15.735500
Fe   4.291500   12.874500   18.596500
Fe   4.291500   15.735500    1.430500
Fe   4.291500   15.735500    4.291500
Fe   4.291500   15.735500    7.152500
Fe   4.291500   15.735500   10.013500
Fe   4.291500   15.735500   12.874500
Fe   4.291500   15.735500   15.735500
Fe   4.291500   15.735500   18.596500
Fe   4.291500   18.596500    1.430500
Fe   4.291500   18.596500    4.291500
Fe   4.291500   18.596500    7.152500
Fe   4.291500   18.596500   10.013500
Fe   4.291500   18.596500   12.874500
Fe   4.291500   18.596500   15.735500
Fe   4.291500   18.596500   18.596500
Fe   7.152500    1.430500    1.430500
Fe   7.152500    1.430500    4.291500
Fe   7.152500    1.430500    7.152500
Fe   7.152500    1.430500   10.013500
Fe   7.152500    1.430500   12.874500
Fe   7.152500    1.430500   15.735500
Fe   7.152500    1.430500   18.596500
Fe   7.152500    4.291500    1.430500
Fe   7.152500    4.291500    4.291500
Fe   7.152500    4.291500    7.152500
Fe   7.152500    4.291500   10.013500
Fe   7.152500    4.291500   12.874500
Fe   7.152500    4.291500   15.735500
Fe   7.152500    4.291500   18.596500
Fe   7.152500    7.152500    1.430500
Fe   7.152500    7.152500    4.291500
Fe   7.152500    7.152500    7.152500
Fe   7.152500    7.152500   10.013500
Fe   7.152500    7.152500   12.874500
Fe   7.152500    7.152500   15.735500
Fe   7.152500    7.152500   18.596500
Fe   7.152500   10.013500    1.430500
Fe   7.152500   10.013500    4.291500
Fe   7.152500   10.013500    7.152500
Fe   7.152500   10.013500   10.013500
Fe   7.152500   10.013500   12.874500
Fe   7.152500   10.013500   15.735500
Fe   7.152500   10.013500   18.596500
Fe   7.152500   12.874500    1.430500
Fe   7.152500   12.874500    4.291500
Fe   7.152500   12.874500    7.152500
Fe   7.152500   12.874500   10.013500
Fe   7.152500   12.874500   12.874500
Fe   7.152500   12.874500   15.735500
Fe   7.152500   12.874500   18.596500
Fe   7.152500   15.735500    1.430500
Fe   7.152500   15.735500    4.291500
Fe   7.152500   15.735500    7.152500
Fe   7.152500   15.735500   10.013500
Fe   7.152500   15.735500   12.874500
Fe   7.152500   15.735500   15.735500
Fe   7.152500   15.735500   18.596500
Fe   7.152500   18.596500    1.430500
Fe   7.152500   18.596500    4.291500
Fe   7.152500   18.596500    7.152500
Fe   7.152500   18.596500   10.013500
Fe   7.152500   18.596500   12.874500
Fe   7.152500   18.596500   15.735500
Fe   7.152500   18.596500   18.596500
Fe  10.013500    1.430500    1.430500
Fe  10.013500    1.430500    4.291500
Fe  10.013500    1.430500    7.152500
Fe  10.013500    1.430500   10.013500
Fe  10.013500    1.430500   12.874500
Fe  10.013500    1.430500   15.735500
Fe  10.013500    1.430500   18.596500
Fe  10.013500    4.291500    1.430500
Fe  10.013500    4.291500    4.291500
Fe  10.013500    4.291500    7.152500
Fe  10.013500    4.291500   10.013500
Fe  10.013500    4.291500   12.874500
Fe  10.013500    4.291500   15.735500
Fe  10.013500    4.291500   18.596500
Fe  10.013500    7.152500    1.430500
Fe  10.013500    7.152500    4.291500
Fe  10.013500    7.152500    7.152500
Fe  10.013500    7.152500   10.013500
Fe  10.013500    7.152500   12.874500
Fe  10.013500    7.152500   15.735500
Fe  10.013500    7.152500   18.596500
Fe  10.013500   10.013500    1.430500
Fe  10.013500   10.013500    4.291500
Fe  10.013500   10.013500    7.152500
Fe  10.013500   10.013500   10.013500
Fe  10.013500   10.013500   12.874500
Fe  10.013500   10.013500   15.735500
Fe  10.013500   10.013500   18.596500
Fe  10.013500   12.874500    1.430500
Fe  10.013500   12.874500    4.291500
Fe  10.013500   12.874500    7.152500
Fe  10.013500   12.874500   10.013500
Fe  10.013500   12.874500   12.874500
Fe  10.013500   12.874500   15.735500
Fe  10.013500   12.874500   18.596500
Fe  10.013500   15.735500    1.430500
Fe  10.013500   15.735500    4.291500
Fe  10.013500   15.735500    7.152500
Fe  10.013500   15.735500   10.013500
Fe  10.013500   15.735500   12.874500
Fe  10.013500   15.735500   15.735500
Fe  10.013500   15.735500   18.596500
Fe  10.013500   18.596500    1.430500
Fe  10.013500   18.596500    4.291500
Fe  10.013500   18.596500    7.152500
Fe  10.013500   18.596500   10.013500
Fe  10.013500   18.596500   12.874500
Fe  10.013500   18.596500   15.735500
Fe  10.013500   18.596500   18.596500
Fe  12.874500    1.430500    1.430500
Fe  12.874500    1.430500    4.291500
Fe  12.874500    1.430500    7.152500
Fe  12.874500    1.430500   10.013500
Fe  12.874500    1.430500   12.874500
Fe  12.874500    1.430500   15.735500
Fe  12.874500    1.430500   18.596500
Fe  12.874500    4.291500    1.430500
Fe  12.874500    4.291500    4.291500
Fe  12.874500    4.291500    7.152500
Fe  12.874500    4.291500   10.013500
Fe  12.874500    4.291500   12.874500
Fe  12.874500    4.291500   15.735500
Fe  12.874500    4.291500   18.596500
Fe  12.874500    7.152500    1.430500
Fe  12.874500    7.152500    4.291500
Fe  12.874500    7.152500    7.152500
Fe  12.874500    7.152500   10.013500
Fe  12.874500    7.152500   12.874500
Fe  12.874500    7.152500   15.735500
Fe  12.874500    7.152500   18.596500
Fe  12.874500   10.013500    1.430500
Fe  12.874500   10.013500    4.291500
Fe  12.874500   10.013500    7.152500
Fe  12.874500   10.013500   10.013500
Fe  12.874500   10.013500   12.874500
Fe  12.874500   10.013500   15.735500
Fe  12.874500   10.013500   18.596500
Fe  12.874500   12.874500    1.430500
Fe  12.874500   12.874500    4.291500
Fe  12.874500   12.874500    7.152500
Fe  12.874500   12.874500   10.013500
Fe  12.874500   12.874500   12.874500
Fe  12.874500   12.874500   15.735500
Fe  12.874500   12.874500   18.596500
Fe  12.874500   15.735500    1.430500
Fe  12.874500   15.735500    4.291500
Fe  12.874500   15.735500    7.152500
Fe  12.874500   15.735500   10.013500
Fe  12.874500   15.735500   12.874500
Fe  12.874500   15.735500   15.735500
Fe  12.874500   15.735500   18.596500
Fe  12.874500   18.596500    1.430500
Fe  12.874500   18.596500    4.291500
Fe  12.874500   18.596500    7.152500
Fe  12.874500   18.596500   10.013500
Fe  12.874500   18.596500   12.874500
Fe  12.874500   18.596500   15.735500
Fe  12.874500   18.596500   18.596500
Fe  15.735500    1.430500    1.430500
Fe  15.735500    1.430500    4.291500
Fe  15.735500    1.430500    7.152500
Fe  15.735500    1.430500   10.013500
Fe  15.735500    1.430500   12.874500
Fe  15.735500    1.430500   15.735500
Fe  15.735500    1.430500   18.596500
Fe  15.735500    4.291500    1.430500
Fe  15.735500    4.291500    4.291500
Fe  15.735500    4.291500    7.152500
Fe  15.735500    4.291500   10.013500
Fe  15.735500    4.291500   12.874500
Fe  15.735500    4.291500   15.735500
Fe  15.735500    4.291500   18.596500
Fe  15.735500    7.152500    1.430500
Fe  15.735500    7.152500    4.291500
Fe  15.735500    7.152500    7.152500
Fe  15.735500    7.152500   10.013500
Fe  15.735500    7.152500   12.874500
Fe  15.735500    7.152500   15.735500
Fe  15.735500    7.152500   18.596500
Fe  15.735500   10.013500    1.430500
Fe  15.735500   10.013500    4.291500
Fe  15.735500   10.013500    7.152500
Fe  15.735500   10.013500   10.013500
Fe  15.735500   10.013500   12.874500
Fe  15.735500   10.013500   15.735500
Fe  15.735500   10.013500   18.596500
Fe  15.735500   12.874500    1.430500
Fe  15.735500   12.874500    4.291500
Fe  15.735500   12.874500    7.152500
Fe  15.735500   12.874500   10.013500
Fe  15.735500   12.874500   12.874500
Fe  15.735500   12.874500   15.735500
Fe  15.735500   12.874500   18.596500
Fe  15.735500   15.735500    1.430500
Fe  15.735500   15.735500    4.291500
Fe  15.735500   15.735500    7.152500
Fe  15.735500   15.735500   10.013500
Fe  15.735500   15.735500   12.874500
Fe  15.735500   15.735500   15.735500
Fe  15.735500   15.735500   18.596500
Fe  15.735500   18.596500    1.430500
Fe  15.735500   18.596500    4.291500
Fe  15.735500   18.596500    7.152500
Fe  15.735500   18.596500   10.013500
Fe  15.735500   18.596500   12.874500
Fe  15.735500   18.596500   15.735500
Fe  15.735500   18.596500   18.596500
Fe  18.596500    1.430500    1.430500
Fe  18.596500    1.430500    4.291500
Fe  18.596500    1.430500    7.152500
Fe  18.596500    1.430500   10.013500
Fe  18.596500    1.430500   12.874500
Fe  18.596500    1.430500   15.735500
Fe  18.596500    1.430500   18.596500
Fe  18.596500    4.291500    1.430500
Fe  18.596500    4.291500    4.291500
Fe  18.596500    4.291500    7.152500
Fe  18.596500    4.291500   10.013500
Fe  18.596500    4.291500   12.874500
Fe  18.596500    4.291500   15.735500
Fe  18.596500    4.291500   18.596500
Fe  18.596500    7.152500    1.430500
Fe  18.596500    7.152500    4.291500
Fe  18.596500    7.152500    7.152500
Fe  18.596500    7.152500   10.013500
Fe  18.596500    7.152500   12.874500
Fe  18.596500    7.152500   15.735500
Fe  18.596500    7.152500   18.596500
Fe  18.596500   10.013500    1.430500
Fe  18.596500   10.013500    4.291500
Fe  18.596500   10.013500    7.152500
Fe  18.596500   10.013500   10.013500
Fe  18.596500   10.013500   12.874500
Fe  18.596500   10.013500   15.735500
Fe  18.596500   10.013500   18.596500
Fe  18.596500   12.874500    1.430500
Fe  18.596500   12.874500    4.291500
Fe  18.596500   12.874500    7.152500
Fe  18.596500   12.874500   10.013500
Fe  18.596500   12.874500   12.874500
Fe  18.596500   12.874500   15.735500
Fe  18.596500   12.874500   18.596500
Fe  18.596500   15.735500    1.430500
Fe  18.596500   15.735500    4.291500
Fe  18.596500   15.735500    7.152500
Fe  18.596500   15.735500   10.013500
Fe  18.596500   15.735500   12.874500
Fe  18.596500   15.735500   15.735500
Fe  18.596500   15.735500   18.596500
Fe  18.596500   18.596500    1.430500
Fe  18.596500   18.596500    4.291500
Fe  18.596500   18.596500    7.152500
Fe  18.596500   18.596500   10.013500
Fe  18.596500   18.596500   12.874500
Fe  18.596500   18.596500   15.735500
Fe  18.596500   18.596500   18.596500
H   4.220000    3.576000    5.722000
H   7.153000    3.576000    11.444000
H   10.024000   12.159000   3.5760000
H   15.020000   1.431000    11.444000
H   13.159000   4.292000    17.166000
